100;	 1;   UInt16;  Addres sensor 0
101;     3;   UInt16;  Function sensor 0 
102;     1;   UInt16;  Value Type sensor 0
103;     1;   UInt16;  Value size sensor 0
104;  3000;   UInt16;  Register sensor 0
105;     0;   UInt16;  Value location sensor 0
106;   0.0;  Float32;  Offset value sensor 0
108;   1.0;  Float32;  Function value sensor 0
110;  Monoksid;  String16;  Description value sensor 0

120;	 1;   UInt16;  Addres sensor 1
121;     3;   UInt16;  Function sensor 1 
122;     2;   UInt16;  Value Type sensor 1
123;     1;   UInt16;  Value size sensor 1
124;  3002;   UInt16;  Register sensor 1
125;     2;   UInt16;  Value location sensor 1
126;   0.0;  Float32;  Offset value sensor 1
128;   1.0;  Float32;  Function value sensor 1
130;  Amoniak;  String16;  Description value sensor 1
                       
140;	 1;   UInt16;  Addres sensor 2
141;     3;   UInt16;  Function sensor 2 
142;    68;   UInt16;  Value Type sensor 2
143;     2;   UInt16;  Value size sensor 2
144;  3004;   UInt16;  Register sensor 2
145;     4;   UInt16;  Value location sensor 2
146;   0.0;  Float32;  Offset value sensor 2
148;   1.0;  Float32;  Function value sensor 2
150;  toxic;  String16;  Description value sensor 2
                       
160;	 1;   UInt16;  Addres sensor 3
161;     3;   UInt16;  Function sensor 3 
162;    68;   UInt16;  Value Type sensor 3
163;     2;   UInt16;  Value size sensor 3
164;  3006;   UInt16;  Register sensor 3
165;     6;   UInt16;  Value location sensor 3
166;   0.0;  Float32;  Offset value sensor 3
168;   1.0;  Float32;  Function value sensor 3
170;  toxic;  String16;  Description value sensor 3
                       
180;	 1;   UInt16;  Addres sensor 4
181;     3;   UInt16;  Function sensor 4 
182;     1;   UInt16;  Value Type sensor 4
183;     1;   UInt16;  Value size sensor 4
184;  3008;   UInt16;  Register sensor 4
185;     8;   UInt16;  Value location sensor 4
186;   0.0;  Float32;  Offset value sensor 4
188;   1.0;  Float32;  Function value sensor 4
190;  Monoksid;  String16;  Description value sensor 4
                       
200;	 1;   UInt16;  Addres sensor 5
201;     3;   UInt16;  Function sensor 5 
202;     2;   UInt16;  Value Type sensor 5
203;     1;   UInt16;  Value size sensor 5
204;  3010;   UInt16;  Register sensor 5
205;    10;   UInt16;  Value location sensor 5
206;   0.0;  Float32;  Offset value sensor 5
208;   1.0;  Float32;  Function value sensor 5
210;  Amoniak;  String16;  Description value sensor 5
                       
220;	 1;   UInt16;  Addres sensor 6
221;     3;   UInt16;  Function sensor 6 
222;    68;   UInt16;  Value Type sensor 6
223;     2;   UInt16;  Value size sensor 6
224;  3012;   UInt16;  Register sensor 6
225;    12;   UInt16;  Value location sensor 6
226;   0.0;  Float32;  Offset value sensor 6
228;   1.0;  Float32;  Function value sensor 6
230;  toxic;  String16;  Description value sensor 6
                       
240;	 1;   UInt16;  Addres sensor 7
241;     3;   UInt16;  Function sensor 7 
242;    68;   UInt16;  Value Type sensor 7
243;     2;   UInt16;  Value size sensor 7
244;  3014;   UInt16;  Register sensor 7
245;    14;   UInt16;  Value location sensor 7
246;   0.0;  Float32;  Offset value sensor 7
248;   1.0;  Float32;  Function value sensor 7
250;  toxic;  String16;  Description value sensor 7
                       
260;	 1;   UInt16;  Addres sensor 8
261;     3;   UInt16;  Function sensor 8 
262;    68;   UInt16;  Value Type sensor 8
263;     2;   UInt16;  Value size sensor 8
264;  3016;   UInt16;  Register sensor 8
265;    16;   UInt16;  Value location sensor 8
266;   0.0;  Float32;  Offset value sensor 8
268;   1.0;  Float32;  Function value sensor 8
270;  Monoksid;  String16;  Description value sensor 8
                       
280;	 1;   UInt16;  Addres sensor 9
281;     3;   UInt16;  Function sensor 9 
282;    68;   UInt16;  Value Type sensor 9
283;     2;   UInt16;  Value size sensor 9
284;  3018;   UInt16;  Register sensor 9
285;    18;   UInt16;  Value location sensor 9
286;   0.0;  Float32;  Offset value sensor 9
288;   1.0;  Float32;  Function value sensor 9
290;  Amoniak;  String16;  Description value sensor 9
                       
300;	 1;   UInt16;  Addres sensor A
301;     3;   UInt16;  Function sensor A 
302;    68;   UInt16;  Value Type sensor A
303;     2;   UInt16;  Value size sensor A
304;  3020;   UInt16;  Register sensor A
305;    20;   UInt16;  Value location sensor A
306;   0.0;  Float32;  Offset value sensor A
308;   1.0;  Float32;  Function value sensor A
310;  toxic;  String16;  Description value sensor A
                       
320;	 1;   UInt16;  Addres sensor B
321;     3;   UInt16;  Function sensor B 
322;    68;   UInt16;  Value Type sensor B
323;     2;   UInt16;  Value size sensor B
324;  3022;   UInt16;  Register sensor B
325;    22;   UInt16;  Value location sensor B
326;   0.0;  Float32;  Offset value sensor B
328;   1.0;  Float32;  Function value sensor B
330;  toxic;  String16;  Description value sensor B
                       
340;	 1;   UInt16;  Addres sensor C
341;     3;   UInt16;  Function sensor C 
342;    68;   UInt16;  Value Type sensor C
343;     2;   UInt16;  Value size sensor C
344;  3024;   UInt16;  Register sensor C
345;    24;   UInt16;  Value location sensor C
346;   0.0;  Float32;  Offset value sensor C
348;   1.0;  Float32;  Function value sensor C
350;  toxic;  String16;  Description value sensor C
                       
360;	 1;   UInt16;  Addres sensor D
361;     3;   UInt16;  Function sensor D 
362;    68;   UInt16;  Value Type sensor D
363;     2;   UInt16;  Value size sensor D
364;  3026;   UInt16;  Register sensor D
365;    26;   UInt16;  Value location sensor D
366;   0.0;  Float32;  Offset value sensor D
368;   1.0;  Float32;  Function value sensor D
370;  toxic;  String16;  Description value sensor D
                       
380;	 1;   UInt16;  Addres sensor E
381;     3;   UInt16;  Function sensor E 
382;    68;   UInt16;  Value Type sensor E
383;     2;   UInt16;  Value size sensor E
384;  3028;   UInt16;  Register sensor E
385;    28;   UInt16;  Value location sensor E
386;   0.0;  Float32;  Offset value sensor E
388;   1.0;  Float32;  Function value sensor E
390;  toxic;  String16;  Description value sensor E

400;	 1;   UInt16;  Addres sensor F
401;     3;   UInt16;  Function sensor F 
402;    68;   UInt16;  Value Type sensor F
403;     2;   UInt16;  Value size sensor F
404;  3030;   UInt16;  Register sensor F
405;    30;   UInt16;  Value location sensor F
406;   0.0;  Float32;  Offset value sensor F
408;   1.0;  Float32;  Function value sensor F
410;  toxic;  String16;  Description value sensor F

420;	 1;   UInt16;  Addres meas 0
421;     3;   UInt16;  Function meas 0 
422;    68;   UInt16;  Value Type meas 0
423;     2;   UInt16;  Value size meas 0
424;  3032;   UInt16;  Register meas 0
425;    32;   UInt16;  Value location meas 0
426;   0.0;  Float32;  Offset value meas 0
428;   1.0;  Float32;  Function value meas 0
430;  toxic;  String16;  Description value meas 0

440;	 1;   UInt16;  Addres meas 1
441;     3;   UInt16;  Function meas 1 
442;    68;   UInt16;  Value Type meas 1
443;     2;   UInt16;  Value size meas 1
444;  3034;   UInt16;  Register meas 1
445;    34;   UInt16;  Value location meas 1
446;   0.0;  Float32;  Offset value meas 1
448;   1.0;  Float32;  Function value meas 1
450;  toxic;  String16;  Description value meas 1

440;	 1;   UInt16;  Addres meas 2
441;     3;   UInt16;  Function meas 2 
442;    68;   UInt16;  Value Type meas 2
443;     2;   UInt16;  Value size meas 2
444;  3036;   UInt16;  Register meas 2
445;    36;   UInt16;  Value location meas 2
446;   0.0;  Float32;  Offset value meas 2
448;   1.0;  Float32;  Function value meas 2
450;  toxic;  String16;  Description value meas 2

460;	 1;   UInt16;  Addres meas 3
461;     3;   UInt16;  Function meas 3 
462;    68;   UInt16;  Value Type meas 3
463;     2;   UInt16;  Value size meas 3
464;  3038;   UInt16;  Register meas 3
465;    38;   UInt16;  Value location meas 3
466;   0.0;  Float32;  Offset value meas 3
468;   1.0;  Float32;  Function value meas 3
470;  toxic;  String16;  Description value meas 3

480;	 1;   UInt16;  Addres meas 4
481;     3;   UInt16;  Function meas 4 
482;    68;   UInt16;  Value Type meas 4
483;     2;   UInt16;  Value size meas 4
484;  3040;   UInt16;  Register meas 4
485;    40;   UInt16;  Value location meas 4
486;   0.0;  Float32;  Offset value meas 4
488;   1.0;  Float32;  Function value meas 4
490;  toxic;  String16;  Description value meas 4

500;	 1;   UInt16;  Addres meas 5
501;     3;   UInt16;  Function meas 5 
502;    68;   UInt16;  Value Type meas 5
503;     2;   UInt16;  Value size meas 5
504;  3042;   UInt16;  Register meas 5
505;    42;   UInt16;  Value location meas 5
506;   0.0;  Float32;  Offset value meas 5
508;   1.0;  Float32;  Function value meas 5
510;  toxic;  String16;  Description value meas 5

520;	 1;   UInt16;  Addres meas 6
521;     3;   UInt16;  Function meas 6 
522;    68;   UInt16;  Value Type meas 6
523;     2;   UInt16;  Value size meas 6
524;  3044;   UInt16;  Register meas 6
525;    44;   UInt16;  Value location meas 6
526;   0.0;  Float32;  Offset value meas 6
528;   1.0;  Float32;  Function value meas 6
530;  toxic;  String16;  Description value meas 6

540;	 1;   UInt16;  Addres meas 7
541;     3;   UInt16;  Function meas 7 
542;    68;   UInt16;  Value Type meas 7
543;     2;   UInt16;  Value size meas 7
544;  3046;   UInt16;  Register meas 7
545;    46;   UInt16;  Value location meas 7
546;   0.0;  Float32;  Offset value meas 7
548;   1.0;  Float32;  Function value meas 7
550;  toxic;  String16;  Description value meas 7

560;	 1;   UInt16;  Addres meas 8
561;     3;   UInt16;  Function meas 8 
562;    68;   UInt16;  Value Type meas 8
563;     2;   UInt16;  Value size meas 8
564;  3048;   UInt16;  Register meas 8
565;    48;   UInt16;  Value location meas 8
566;   0.0;  Float32;  Offset value meas 8
568;   1.0;  Float32;  Function value meas 8
570;  toxic;  String16;  Description value meas 8

580;	 1;   UInt16;  Addres meas 9
581;     3;   UInt16;  Function meas 9 
582;    68;   UInt16;  Value Type meas 9
583;     2;   UInt16;  Value size meas 9
584;  3050;   UInt16;  Register meas 9
585;    50;   UInt16;  Value location meas 9
586;   0.0;  Float32;  Offset value meas 9
588;   1.0;  Float32;  Function value meas 9
590;  toxic;  String16;  Description value meas 9

600;	 1;   UInt16;  Addres meas A
601;     3;   UInt16;  Function meas A 
602;    68;   UInt16;  Value Type meas A
603;     2;   UInt16;  Value size meas A
604;  3052;   UInt16;  Register meas A
605;    52;   UInt16;  Value location meas A
606;   0.0;  Float32;  Offset value meas A
608;   1.0;  Float32;  Function value meas A
610;  toxic;  String16;  Description value meas A

620;	 1;   UInt16;  Addres meas B
621;     3;   UInt16;  Function meas B 
622;    68;   UInt16;  Value Type meas B
623;     2;   UInt16;  Value size meas B
624;  3054;   UInt16;  Register meas B
625;    54;   UInt16;  Value location meas B
626;   0.0;  Float32;  Offset value meas B
628;   1.0;  Float32;  Function value meas B
630;  toxic;  String16;  Description value meas B

640;	 1;   UInt16;  Addres meas C
641;     3;   UInt16;  Function meas C 
642;    68;   UInt16;  Value Type meas C
643;     2;   UInt16;  Value size meas C
644;  3056;   UInt16;  Register meas C
645;    56;   UInt16;  Value location meas C
646;   0.0;  Float32;  Offset value meas C
648;   1.0;  Float32;  Function value meas C
650;  toxic;  String16;  Description value meas C

660;	 1;   UInt16;  Addres meas D
661;     3;   UInt16;  Function meas D 
662;    68;   UInt16;  Value Type meas D
663;     2;   UInt16;  Value size meas D
664;  3058;   UInt16;  Register meas D
665;    58;   UInt16;  Value location meas D
666;   0.0;  Float32;  Offset value meas D
668;   1.0;  Float32;  Function value meas D
670;  toxic;  String16;  Description value meas D

680;	 1;   UInt16;  Addres meas E
681;     3;   UInt16;  Function meas E 
682;    68;   UInt16;  Value Type meas E
683;     2;   UInt16;  Value size meas E
684;  3060;   UInt16;  Register meas E
685;    60;   UInt16;  Value location meas E
686;   0.0;  Float32;  Offset value meas E
688;   1.0;  Float32;  Function value meas E
690;  toxic;  String16;  Description value meas E

700;	 1;   UInt16;  Addres meas F
701;     3;   UInt16;  Function meas F 
702;    68;   UInt16;  Value Type meas F
703;     2;   UInt16;  Value size meas F
704;  3062;   UInt16;  Register meas F
705;    62;   UInt16;  Value location meas F
706;   0.0;  Float32;  Offset value meas F
708;   1.0;  Float32;  Function value meas F
710;  toxic;  String16;  Description value meas F